<svg width="548" height="241" viewBox="0 0 548 241" fill="none" xmlns="http://www.w3.org/2000/svg">
<rect width="548" height="241" transform="matrix(1 0 0 -1 0 241)" fill="url(#paint0_linear_0_170)"/>
<defs>
<linearGradient id="paint0_linear_0_170" x1="274" y1="0" x2="274" y2="241" gradientUnits="userSpaceOnUse">
<stop offset="0.298343" stop-color="#211637"/>
<stop offset="1" stop-color="#221839" stop-opacity="0"/>
</linearGradient>
</defs>
</svg>
